Home · UKCarbonIntensityData.jl
…
using UKCarbonIntensityData
using Plots
using TimeZones
using Dates

start_date = now(localzone()) - Day(30)
end_date = now(localzone())

# get national level intensity data for the given period
national_data = get_carbon_intensity(start_date, end_date)
first(national_data, 5)

2-element Vector{Union{Nothing, DataFrames.DataFrame}}:
 1299×5 DataFrame
  Row │ from                 to                   forecast  actual  index
      │ DateTime             DateTime             Any       Any     Any
──────┼──────────────────────────────────────────────────────────────────────
    1 │ 2022-03-27T11:00:00  2022-03-27T11:30:00  201       227     high
    2 │ 2022-03-27T11:30:00  2022-03-27T12:00:00  198       223     high
    3 │ 2022-03-27T12:00:00  2022-03-27T12:30:00  197       222     high
    4 │ 2022-03-27T12:30:00  2022-03-27T13:00:00  197       211     high
    5 │ 2022-03-27T13:00:00  2022-03-27T13:30:00  197       206     moderate
    6 │ 2022-03-27T13:30:00  2022-03-27T14:00:00  199       206     moderate
    7 │ 2022-03-27T14:00:00  2022-03-27T14:30:00  204       207     moderate
    8 │ 2022-03-27T14:30:00  2022-03-27T15:00:00  212       213     high
  ⋮   │          ⋮                    ⋮              ⋮        ⋮        ⋮
 1293 │ 2022-04-25T08:00:00  2022-04-25T08:30:00  218       219     high
 1294 │ 2022-04-25T08:30:00  2022-04-25T09:00:00  212       219     high
 1295 │ 2022-04-25T09:00:00  2022-04-25T09:30:00  207       216     high
 1296 │ 2022-04-25T09:30:00  2022-04-25T10:00:00  204       214     high
 1297 │ 2022-04-25T10:00:00  2022-04-25T10:30:00  208       212     high
 1298 │ 2022-04-25T10:30:00  2022-04-25T11:00:00  208       210     high
 1299 │ 2022-04-25T11:00:00  2022-04-25T11:30:00  209       207     moderate
                                                            1284 rows omitted
…
